0, 0.0000000020876756
1, 0.000000010438378
2, 0.000000041753513
3, 0.00000015657568
4, 0.0000005845492
5, 0.000002181621
6, 0.000007801644
7, 0.000026304713
8, 0.00008334419
9, 0.00024864217
10, 0.0006968599
11, 0.001834568
12, 0.0045189704
13, 0.010327909
14, 0.02171967
15, 0.041635323
16, 0.071932055
17, 0.110519245
18, 0.14824353
19, 0.16959329
20, 0.16135237
21, 0.124564745
22, 0.076460354
23, 0.036860164
24, 0.013914177
25, 0.0041537522
26, 0.0010191908
27, 0.0002232435
28, 0.000049198166
29, 0.000010250487
30, 0.0000018100149
31, 0.00000021085525
32, 0.000000041753513
33, 0.000000010438378
34, 0.0000000020876756
